<?xml version="1.0" encoding="utf-8"?>
<!-- Generator: Adobe Illustrator 19.2.1, SVG Export Plug-In . SVG Version: 6.00 Build 0)  -->
<svg version="1.1" xmlns="http://www.w3.org/2000/svg" xmlns:xlink="http://www.w3.org/1999/xlink" x="0px" y="0px"
	 viewBox="0 0 43.7 64.3" style="enable-background:new 0 0 43.7 64.3;" xml:space="preserve">
<style type="text/css">
	.st0{display:none;}
	.st1{fill:none;stroke:#000000;stroke-width:0.5;stroke-miterlimit:10;}
	.st2{fill:url(#SVGID_1_);}
	.st3{fill:#FFFFFF;}
	.st4{fill:url(#SVGID_2_);}
	.st5{opacity:0.35;fill:#3568B0;}
	.st6{fill:none;stroke:#FFFFFF;stroke-width:0.5;stroke-miterlimit:10;}
	.st7{fill:none;stroke:#E6007E;stroke-width:0.2;stroke-miterlimit:10;}
</style>
<g id="Calque_1" class="st0">
	
		<image style="display:inline;overflow:visible;" width="564" height="1777" xlink:href="990740242ea1804f8e10233538809160.jpg"  transform="matrix(1 0 0 1 -363.4021 -1291.7914)">
	</image>
</g>
<g id="Calque_2">
	<path class="st1" d="M24.8,49.1c0,0,9.2,6.2,10.3-8"/>
	<path class="st1" d="M17,47.8c0,0-7.7,2.9-5.6,10.6"/>
	<circle cx="21" cy="53" r="3.9"/>
	<linearGradient id="SVGID_1_" gradientUnits="userSpaceOnUse" x1="17.0833" y1="50.0833" x2="24.8333" y2="50.0833">
		<stop  offset="0" style="stop-color:#438CCB"/>
		<stop  offset="1" style="stop-color:#7BC7C1"/>
	</linearGradient>
	<rect x="17.1" y="48.1" class="st2" width="7.8" height="4"/>
	<path class="st3" d="M4.3,39.3c0,0,15.5,20.5,35,0.3L4.3,39.3z"/>
	<path d="M28.6,45.3H13.3c-1.1,0-2-0.9-2-2v-2.8c0-1.1,0.9-2,2-2h15.3c1.1,0,2,0.9,2,2v2.8C30.6,44.4,29.7,45.3,28.6,45.3z"/>
	<linearGradient id="SVGID_2_" gradientUnits="userSpaceOnUse" x1="4.0749" y1="22.7083" x2="39.5918" y2="22.7083">
		<stop  offset="0" style="stop-color:#438CCB"/>
		<stop  offset="1" style="stop-color:#7BC7C1"/>
	</linearGradient>
	<path class="st4" d="M4.1,39.8h35.5c0,0,1.3-20.5-17.8-34.3C21.8,5.6,4.1,12.8,4.1,39.8z"/>
	<polygon class="st5" points="11.3,27.1 12.9,30.3 16.4,30.8 13.9,33.2 14.5,36.7 11.3,35.1 8.2,36.7 8.8,33.2 6.2,30.8 9.8,30.3 	
		"/>
	<polyline class="st6" points="13.5,43 15.9,41 18,43.8 	"/>
	<polyline class="st6" points="23.9,43 26.2,41 28.4,43.8 	"/>
	<line class="st7" x1="20" y1="46.7" x2="22" y2="46.7"/>
	<g>
	</g>
	<g>
	</g>
	<g>
	</g>
	<g>
	</g>
	<g>
	</g>
	<g>
	</g>
</g>
</svg>
